{
  "coolDownSeconds": 300,
  "gpio": {
    "P1-3": 3000,
    "P1-4": 4000
  },
  "maxAgeSeconds": 30,
  "maxConfirmations": 1,
  "minAmount": 1,
  "url": "http://eguldenrpc:password@127.0.0.1:21015"
}
